test
…
## -- Attaching packages -------------

## v ggplot2 3.2.0     v purrr   0.3.2
## v tibble  2.1.3     v dplyr   0.8.3
## v tidyr   0.8.3     v stringr 1.4.0
## v readr   1.3.1     v forcats 0.4.0

## -- Conflicts ----------------------
## x dplyr::filter() masks stats::filter()
## x dplyr::lag()    masks stats::lag()

tibble::tibble(cars)

## # A tibble: 50 x 1
##    cars$speed $dist
##         <dbl> <dbl>
##  1          4     2
##  2          4    10
##  3          7     4
##  4          7    22
##  5          8    16
##  6          9    10
##  7         10    18
##  8         10    26
##  9         10    34
## 10         11    17
## # ... with 40 more rows
…
